{
  "main.css": "static/css/main.0979db4d.css",
  "main.css.map": "static/css/main.0979db4d.css.map",
  "main.js": "static/js/main.9c26f149.js",
  "main.js.map": "static/js/main.9c26f149.js.map",
  "static/media/fontawesome-webfont.eot": "static/media/fontawesome-webfont.674f50d2.eot",
  "static/media/fontawesome-webfont.svg?v=4.7.0": "static/media/fontawesome-webfont.912ec66d.svg",
  "static/media/fontawesome-webfont.ttf?v=4.7.0": "static/media/fontawesome-webfont.b06871f2.ttf",
  "static/media/fontawesome-webfont.woff2?v=4.7.0": "static/media/fontawesome-webfont.af7ae505.woff2",
  "static/media/fontawesome-webfont.woff?v=4.7.0": "static/media/fontawesome-webfont.fee66e71.woff",
  "static/media/ionicons.eot?v=3.0.0-alpha.3": "static/media/ionicons.bdf1d306.eot",
  "static/media/ionicons.svg?v=3.0.0-alpha.3": "static/media/ionicons.d9496a23.svg",
  "static/media/ionicons.ttf?v=3.0.0-alpha.3": "static/media/ionicons.74c65267.ttf",
  "static/media/ionicons.woff2?v=3.0.0-alpha.3": "static/media/ionicons.311d8196.woff2",
  "static/media/ionicons.woff?v=3.0.0-alpha.3": "static/media/ionicons.81414686.woff",
  "static/media/logo.svg": "static/media/logo.5d5d9eef.svg"
}